{
  "project_info": {
    "project_number": "746202939418",
    "project_id": "royal-security-system",
    "storage_bucket": "royal-security-system.appspot.com"
  },
  "client": [
    {
      "client_info": {
        "mobilesdk_app_id": "1:746202939418:android:0487acc24dc409de2611a3",
        "android_client_info": {
          "package_name": "com.supernal.royalsecuritysystems"
        }
      },
      "oauth_client": [
        {
          "client_id": "746202939418-okt8blrtuem9qaogoc5re3bro5cbi57l.apps.googleusercontent.com",
          "client_type": 1,
          "android_info": {
            "package_name": "com.supernal.royalsecuritysystems",
            "certificate_hash": "b6490d953dcfecdd8203bb8b0fe6052895dc5b38"
          }
        },
        {
          "client_id": "746202939418-hv3lopa5k96liq9dg76p8mie0e876r6o.apps.googleusercontent.com",
          "client_type": 3
        }
      ],
      "api_key": [
        {
          "current_key": "AIzaSyC_mJiz3xKe1OsEYgX19Om4aKR5QJ2aseY"
        }
      ],
      "services": {
        "appinvite_service": {
          "other_platform_oauth_client": [
            {
              "client_id": "746202939418-hv3lopa5k96liq9dg76p8mie0e876r6o.apps.googleusercontent.com",
              "client_type": 3
            }
          ]
        }
      }
    }
  ],
  "configuration_version": "1"
}